<?xml version="1.0" encoding="UTF-8"?>
<svg width="37px" height="37px" viewBox="0 0 37 37" version="1.1" xmlns="http://www.w3.org/2000/svg" xmlns:xlink="http://www.w3.org/1999/xlink">
    <!-- Generator: Sketch 55.2 (78181) - https://sketchapp.com -->
    <title>like_a</title>
    <desc>Created with Sketch.</desc>
    <g id="Page-1" stroke="none" stroke-width="1" fill="none" fill-rule="evenodd">
        <g id="like_a" fill-rule="nonzero">
            <circle id="Oval" fill="#DB094F" cx="18.04" cy="18.05" r="17.36"></circle>
            <path d="M18.04,36.08 C8.09,36.08 0,27.99 0,18.04 C0,8.1 8.09,0 18.04,0 C27.99,0 36.08,8.09 36.08,18.04 C36.08,27.99 27.99,36.08 18.04,36.08 Z M18.04,1.37 C8.84,1.37 1.36,8.85 1.36,18.05 C1.36,27.25 8.84,34.73 18.04,34.73 C27.24,34.73 34.72,27.25 34.72,18.05 C34.72,8.85 27.24,1.37 18.04,1.37 Z" id="Shape" fill="#FFFFFF"></path>
            <g id="Group" transform="translate(5.120000, 7.800000)" fill="#FFFFFF">
                <path d="M13.03,3.89 C13.03,3.89 10.85,5.55111512e-17 6.77,0.43 C2.69,0.86 1.65,2.66 1.03,4.46 C0.41,6.26 -0.11,9.82 3.21,13.33 C6.53,16.84 12.41,21.3 12.88,23" id="Path"></path>
                <path d="M12.67,3.94 C12.67,3.94 14.85,0.05 18.93,0.48 C23.01,0.9 24.05,2.71 24.67,4.51 C25.29,6.31 25.81,9.87 22.49,13.37 C19.17,16.88 13.29,21.34 12.82,23.04" id="Path"></path>
            </g>
        </g>
    </g>
</svg>